simulation/tb_TOP.vcd
$date
	Tue May 26 15:27:26 2026
$end
$version
	Icarus Verilog
$end
$timescale
	1ps
$end
$scope module tb_TOP $end
$var wire 1 ! miso $end
$var parameter 32 " CLK_PERIOD $end
$var parameter 32 # SCLK_HALF $end
$var reg 1 $ READ_MODE $end
$var reg 1 % clk $end
$var reg 1 & mosi $end
$var reg 16 ' result [15:0] $end
$var reg 1 ( rstn $end
$var reg 16 ) rx_dummy [15:0] $end
$var reg 1 * sclk_reg $end
$var reg 1 + ssn $end
$var real 1 , actual $end
$var real 1 - expected $end
$var integer 32 . i [31:0] $end
$var real 1 / i_real $end
$var real 1 0 product $end
$var real 1 1 w_real $end
$scope function e4m3_to_real $end
$var reg 8 2 val [7:0] $end
$var integer 32 3 exp_int [31:0] $end
$var real 1 4 mantissa $end
$upscope $end
$scope function e5m2_to_real $end
$var reg 8 5 val [7:0] $end
$var integer 32 6 exp_int [31:0] $end
$var real 1 7 mantissa $end
$upscope $end
$scope module u_top $end
$var wire 1 % i_clk $end
$var wire 1 & i_mosi $end
$var wire 1 ( i_rstn $end
$var wire 1 * i_sclk $end
$var wire 1 + i_ssn $end
$var wire 1 8 w_all_valid $end
$var wire 16 9 spi_tx_data [15:0] $end
$var wire 1 : spi_rx_done $end
$var wire 16 ; spi_o_dat [15:0] $end
$var wire 1 ! o_miso $end
$var wire 1 < ir_mode $end
$var wire 9 = ir_data [8:0] $end
$var wire 1 > ir_cmd_valid_one_pulse $end
$var wire 3 ? ir_cmd [2:0] $end
$var wire 4 @ ir_addr [3:0] $end
$var wire 1 A i_all_valid $end
$var wire 9 B fpu_rf_out [8:0] $end
$var wire 1 C fpu_rf_all_valid $end
$var wire 1 D ctrl_w_wen $end
$var wire 1 E ctrl_tx_load $end
$var wire 1 F ctrl_mode $end
$var wire 1 G ctrl_i_wen $end
$var wire 1 H ctrl_fpu_start $end
$var wire 1 I ctrl_fpu_rf_wen $end
$var wire 1 J ctrl_fpu_rf_send_start $end
$var wire 1 K ctrl_clear_valid $end
$var wire 1 L ctrl_acc_start $end
$var wire 1 M ctrl_acc_r_wen $end
$var wire 9 N acc_result [8:0] $end
$var wire 8 O acc_r_data [7:0] $end
$var wire 1 P acc_done $end
$var reg 1 Q rx_done_d $end
$scope begin fpu_gen[0] $end
$var parameter 2 R g $end
$scope module u_fpu $end
$var wire 9 S i_input [8:0] $end
$var wire 9 T i_weight [8:0] $end
$var wire 1 U input_is_inf $end
$var wire 1 V input_is_nan $end
$var wire 1 W input_is_zero $end
$var wire 1 X round_up $end
$var wire 1 Y sign_out $end
$var wire 1 Z weight_is_inf $end
$var wire 1 [ weight_is_nan $end
$var wire 1 \ weight_is_zero $end
$var wire 9 ] zero_val [8:0] $end
$var wire 1 ^ underflow $end
$var wire 1 _ sticky $end
$var wire 1 ` sign_weight $end
$var wire 1 a sign_input $end
$var wire 1 b round_overflow $end
$var wire 1 c round $end
$var wire 1 d overflow $end
$var wire 9 e normal_val [8:0] $end
$var wire 9 f nan_val [8:0] $end
$var wire 3 g mant_weight [2:0] $end
$var wire 4 h mant_rounded [3:0] $end
$var wire 3 i mant_round_candidate [2:0] $end
$var wire 8 j mant_product [7:0] $end
$var wire 8 k mant_normalized [7:0] $end
$var wire 3 l mant_input [2:0] $end
$var wire 3 m mant_final [2:0] $end
$var wire 9 n inf_val [8:0] $end
$var wire 1 H i_start $end
$var wire 1 o guard $end
$var wire 5 p exp_weight [4:0] $end
$var wire 7 q exp_normalized [6:0] $end
$var wire 5 r exp_input [4:0] $end
$var wire 7 s exp_final [6:0] $end
$var wire 7 t exp_added [6:0] $end
$var reg 9 u o_result [8:0] $end
$upscope $end
$upscope $end
$scope begin fpu_gen[1] $end
$var parameter 2 v g $end
$scope module u_fpu $end
$var wire 9 w i_input [8:0] $end
$var wire 9 x i_weight [8:0] $end
$var wire 1 y input_is_inf $end
$var wire 1 z input_is_nan $end
$var wire 1 { input_is_zero $end
$var wire 1 | round_up $end
$var wire 1 } sign_out $end
$var wire 1 ~ weight_is_inf $end
$var wire 1 !" weight_is_nan $end
$var wire 1 "" weight_is_zero $end
$var wire 9 #" zero_val [8:0] $end
$var wire 1 $" underflow $end
$var wire 1 %" sticky $end
$var wire 1 &" sign_weight $end
$var wire 1 '" sign_input $end
$var wire 1 (" round_overflow $end
$var wire 1 )" round $end
$var wire 1 *" overflow $end
$var wire 9 +" normal_val [8:0] $end
$var wire 9 ," nan_val [8:0] $end
$var wire 3 -" mant_weight [2:0] $end
$var wire 4 ." mant_rounded [3:0] $end
$var wire 3 /" mant_round_candidate [2:0] $end
$var wire 8 0" mant_product [7:0] $end
$var wire 8 1" mant_normalized [7:0] $end
$var wire 3 2" mant_input [2:0] $end
$var wire 3 3" mant_final [2:0] $end
$var wire 9 4" inf_val [8:0] $end
$var wire 1 H i_start $end
$var wire 1 5" guard $end
$var wire 5 6" exp_weight [4:0] $end
$var wire 7 7" exp_normalized [6:0] $end
$var wire 5 8" exp_input [4:0] $end
$var wire 7 9" exp_final [6:0] $end
$var wire 7 :" exp_added [6:0] $end
$var reg 9 ;" o_result [8:0] $end
$upscope $end
$upscope $end
$scope begin fpu_gen[2] $end
$var parameter 3 <" g $end
$scope module u_fpu $end
$var wire 9 =" i_input [8:0] $end
$var wire 9 >" i_weight [8:0] $end
$var wire 1 ?" input_is_inf $end
$var wire 1 @" input_is_nan $end
$var wire 1 A" input_is_zero $end
$var wire 1 B" round_up $end
$var wire 1 C" sign_out $end
$var wire 1 D" weight_is_inf $end
$var wire 1 E" weight_is_nan $end
$var wire 1 F" weight_is_zero $end
$var wire 9 G" zero_val [8:0] $end
$var wire 1 H" underflow $end
$var wire 1 I" sticky $end
$var wire 1 J" sign_weight $end
$var wire 1 K" sign_input $end
$var wire 1 L" round_overflow $end
$var wire 1 M" round $end
$var wire 1 N" overflow $end
$var wire 9 O" normal_val [8:0] $end
$var wire 9 P" nan_val [8:0] $end
$var wire 3 Q" mant_weight [2:0] $end
$var wire 4 R" mant_rounded [3:0] $end
$var wire 3 S" mant_round_candidate [2:0] $end
$var wire 8 T" mant_product [7:0] $end
$var wire 8 U" mant_normalized [7:0] $end
$var wire 3 V" mant_input [2:0] $end
$var wire 3 W" mant_final [2:0] $end
$var wire 9 X" inf_val [8:0] $end
$var wire 1 H i_start $end
$var wire 1 Y" guard $end
$var wire 5 Z" exp_weight [4:0] $end
$var wire 7 [" exp_normalized [6:0] $end
$var wire 5 \" exp_input [4:0] $end
$var wire 7 ]" exp_final [6:0] $end
$var wire 7 ^" exp_added [6:0] $end
$var reg 9 _" o_result [8:0] $end
$upscope $end
$upscope $end
$scope begin fpu_gen[3] $end
$var parameter 3 `" g $end
$scope module u_fpu $end
$var wire 9 a" i_input [8:0] $end
$var wire 9 b" i_weight [8:0] $end
$var wire 1 c" input_is_inf $end
$var wire 1 d" input_is_nan $end
$var wire 1 e" input_is_zero $end
$var wire 1 f" round_up $end
$var wire 1 g" sign_out $end
$var wire 1 h" weight_is_inf $end
$var wire 1 i" weight_is_nan $end
$var wire 1 j" weight_is_zero $end
$var wire 9 k" zero_val [8:0] $end
$var wire 1 l" underflow $end
$var wire 1 m" sticky $end
$var wire 1 n" sign_weight $end
$var wire 1 o" sign_input $end
$var wire 1 p" round_overflow $end
$var wire 1 q" round $end
$var wire 1 r" overflow $end
$var wire 9 s" normal_val [8:0] $end
$var wire 9 t" nan_val [8:0] $end
$var wire 3 u" mant_weight [2:0] $end
$var wire 4 v" mant_rounded [3:0] $end
$var wire 3 w" mant_round_candidate [2:0] $end
$var wire 8 x" mant_product [7:0] $end
$var wire 8 y" mant_normalized [7:0] $end
$var wire 3 z" mant_input [2:0] $end
$var wire 3 {" mant_final [2:0] $end
$var wire 9 |" inf_val [8:0] $end
$var wire 1 H i_start $end
$var wire 1 }" guard $end
$var wire 5 ~" exp_weight [4:0] $end
$var wire 7 !# exp_normalized [6:0] $end
$var wire 5 "# exp_input [4:0] $end
$var wire 7 ## exp_final [6:0] $end
$var wire 7 $# exp_added [6:0] $end
$var reg 9 %# o_result [8:0] $end
$upscope $end
$upscope $end
$scope begin fpu_gen[4] $end
$var parameter 4 &# g $end
$scope module u_fpu $end
$var wire 9 '# i_input [8:0] $end
$var wire 9 (# i_weight [8:0] $end
$var wire 1 )# input_is_inf $end
$var wire 1 *# input_is_nan $end
$var wire 1 +# input_is_zero $end
$var wire 1 ,# round_up $end
$var wire 1 -# sign_out $end
$var wire 1 .# weight_is_inf $end
$var wire 1 /# weight_is_nan $end
$var wire 1 0# weight_is_zero $end
$var wire 9 1# zero_val [8:0] $end
$var wire 1 2# underflow $end
$var wire 1 3# sticky $end
$var wire 1 4# sign_weight $end
$var wire 1 5# sign_input $end
$var wire 1 6# round_overflow $end
$var wire 1 7# round $end
$var wire 1 8# overflow $end
$var wire 9 9# normal_val [8:0] $end
$var wire 9 :# nan_val [8:0] $end
$var wire 3 ;# mant_weight [2:0] $end
$var wire 4 <# mant_rounded [3:0] $end
$var wire 3 =# mant_round_candidate [2:0] $end
$var wire 8 ># mant_product [7:0] $end
$var wire 8 ?# mant_normalized [7:0] $end
$var wire 3 @# mant_input [2:0] $end
$var wire 3 A# mant_final [2:0] $end
$var wire 9 B# inf_val [8:0] $end
$var wire 1 H i_start $end
$var wire 1 C# guard $end
$var wire 5 D# exp_weight [4:0] $end
$var wire 7 E# exp_normalized [6:0] $end
$var wire 5 F# exp_input [4:0] $end
$var wire 7 G# exp_final [6:0] $end
$var wire 7 H# exp_added [6:0] $end
$var reg 9 I# o_result [8:0] $end
$upscope $end
$upscope $end
$scope begin fpu_gen[5] $end
$var parameter 4 J# g $end
$scope module u_fpu $end
$var wire 9 K# i_input [8:0] $end
$var wire 9 L# i_weight [8:0] $end
$var wire 1 M# input_is_inf $end
$var wire 1 N# input_is_nan $end
$var wire 1 O# input_is_zero $end
$var wire 1 P# round_up $end
$var wire 1 Q# sign_out $end
$var wire 1 R# weight_is_inf $end
$var wire 1 S# weight_is_nan $end
$var wire 1 T# weight_is_zero $end
$var wire 9 U# zero_val [8:0] $end
$var wire 1 V# underflow $end
$var wire 1 W# sticky $end
$var wire 1 X# sign_weight $end
$var wire 1 Y# sign_input $end
$var wire 1 Z# round_overflow $end
$var wire 1 [# round $end
$var wire 1 \# overflow $end
$var wire 9 ]# normal_val [8:0] $end
$var wire 9 ^# nan_val [8:0] $end
$var wire 3 _# mant_weight [2:0] $end
$var wire 4 `# mant_rounded [3:0] $end
$var wire 3 a# mant_round_candidate [2:0] $end
$var wire 8 b# mant_product [7:0] $end
$var wire 8 c# mant_normalized [7:0] $end
$var wire 3 d# mant_input [2:0] $end
$var wire 3 e# mant_final [2:0] $end
$var wire 9 f# inf_val [8:0] $end
$var wire 1 H i_start $end
$var wire 1 g# guard $end
$var wire 5 h# exp_weight [4:0] $end
$var wire 7 i# exp_normalized [6:0] $end
$var wire 5 j# exp_input [4:0] $end
$var wire 7 k# exp_final [6:0] $end
$var wire 7 l# exp_added [6:0] $end
$var reg 9 m# o_result [8:0] $end
$upscope $end
$upscope $end
$scope begin fpu_gen[6] $end
$var parameter 4 n# g $end
$scope module u_fpu $end
$var wire 9 o# i_input [8:0] $end
$var wire 9 p# i_weight [8:0] $end
$var wire 1 q# input_is_inf $end
$var wire 1 r# input_is_nan $end
$var wire 1 s# input_is_zero $end
$var wire 1 t# round_up $end
$var wire 1 u# sign_out $end
$var wire 1 v# weight_is_inf $end
$var wire 1 w# weight_is_nan $end
$var wire 1 x# weight_is_zero $end
$var wire 9 y# zero_val [8:0] $end
$var wire 1 z# underflow $end
$var wire 1 {# sticky $end
$var wire 1 |# sign_weight $end
$var wire 1 }# sign_input $end
$var wire 1 ~# round_overflow $end
$var wire 1 !$ round $end
$var wire 1 "$ overflow $end
$var wire 9 #$ normal_val [8:0] $end
$var wire 9 $$ nan_val [8:0] $end
$var wire 3 %$ mant_weight [2:0] $end
$var wire 4 &$ mant_rounded [3:0] $end
$var wire 3 '$ mant_round_candidate [2:0] $end
$var wire 8 ($ mant_product [7:0] $end
$var wire 8 )$ mant_normalized [7:0] $end
$var wire 3 *$ mant_input [2:0] $end
$var wire 3 +$ mant_final [2:0] $end
$var wire 9 ,$ inf_val [8:0] $end
$var wire 1 H i_start $end
$var wire 1 -$ guard $end
$var wire 5 .$ exp_weight [4:0] $end
$var wire 7 /$ exp_normalized [6:0] $end
$var wire 5 0$ exp_input [4:0] $end
$var wire 7 1$ exp_final [6:0] $end
$var wire 7 2$ exp_added [6:0] $end
$var reg 9 3$ o_result [8:0] $end
$upscope $end
$upscope $end
$scope begin fpu_gen[7] $end
$var parameter 4 4$ g $end
$scope module u_fpu $end
$var wire 9 5$ i_input [8:0] $end
$var wire 9 6$ i_weight [8:0] $end
$var wire 1 7$ input_is_inf $end
$var wire 1 8$ input_is_nan $end
$var wire 1 9$ input_is_zero $end
$var wire 1 :$ round_up $end
$var wire 1 ;$ sign_out $end
$var wire 1 <$ weight_is_inf $end
$var wire 1 =$ weight_is_nan $end
$var wire 1 >$ weight_is_zero $end
$var wire 9 ?$ zero_val [8:0] $end
$var wire 1 @$ underflow $end
$var wire 1 A$ sticky $end
$var wire 1 B$ sign_weight $end
$var wire 1 C$ sign_input $end
$var wire 1 D$ round_overflow $end
$var wire 1 E$ round $end
$var wire 1 F$ overflow $end
$var wire 9 G$ normal_val [8:0] $end
$var wire 9 H$ nan_val [8:0] $end
$var wire 3 I$ mant_weight [2:0] $end
$var wire 4 J$ mant_rounded [3:0] $end
$var wire 3 K$ mant_round_candidate [2:0] $end
$var wire 8 L$ mant_product [7:0] $end
$var wire 8 M$ mant_normalized [7:0] $end
$var wire 3 N$ mant_input [2:0] $end
$var wire 3 O$ mant_final [2:0] $end
$var wire 9 P$ inf_val [8:0] $end
$var wire 1 H i_start $end
$var wire 1 Q$ guard $end
$var wire 5 R$ exp_weight [4:0] $end
$var wire 7 S$ exp_normalized [6:0] $end
$var wire 5 T$ exp_input [4:0] $end
$var wire 7 U$ exp_final [6:0] $end
$var wire 7 V$ exp_added [6:0] $end
$var reg 9 W$ o_result [8:0] $end
$upscope $end
$upscope $end
$scope begin fpu_gen[8] $end
$var parameter 5 X$ g $end
$scope module u_fpu $end
$var wire 9 Y$ i_input [8:0] $end
$var wire 9 Z$ i_weight [8:0] $end
$var wire 1 [$ input_is_inf $end
$var wire 1 \$ input_is_nan $end
$var wire 1 ]$ input_is_zero $end
$var wire 1 ^$ round_up $end
$var wire 1 _$ sign_out $end
$var wire 1 `$ weight_is_inf $end
$var wire 1 a$ weight_is_nan $end
$var wire 1 b$ weight_is_zero $end
$var wire 9 c$ zero_val [8:0] $end
$var wire 1 d$ underflow $end
$var wire 1 e$ sticky $end
$var wire 1 f$ sign_weight $end
$var wire 1 g$ sign_input $end
$var wire 1 h$ round_overflow $end
$var wire 1 i$ round $end
$var wire 1 j$ overflow $end
$var wire 9 k$ normal_val [8:0] $end
$var wire 9 l$ nan_val [8:0] $end
$var wire 3 m$ mant_weight [2:0] $end
$var wire 4 n$ mant_rounded [3:0] $end
$var wire 3 o$ mant_round_candidate [2:0] $end
$var wire 8 p$ mant_product [7:0] $end
$var wire 8 q$ mant_normalized [7:0] $end
$var wire 3 r$ mant_input [2:0] $end
$var wire 3 s$ mant_final [2:0] $end
$var wire 9 t$ inf_val [8:0] $end
$var wire 1 H i_start $end
$var wire 1 u$ guard $end
$var wire 5 v$ exp_weight [4:0] $end
$var wire 7 w$ exp_normalized [6:0] $end
$var wire 5 x$ exp_input [4:0] $end
$var wire 7 y$ exp_final [6:0] $end
$var wire 7 z$ exp_added [6:0] $end
$var reg 9 {$ o_result [8:0] $end
$upscope $end
$upscope $end
$scope module u_acc $end
$var wire 1 % i_clk $end
$var wire 1 ( i_rstn $end
$var wire 1 L i_start $end
$var wire 9 |$ i_data [8:0] $end
$var wire 9 }$ adder_result [8:0] $end
$var reg 4 ~$ acc_cnt [3:0] $end
$var reg 9 !% acc_reg [8:0] $end
$var reg 1 "% active $end
$var reg 1 P o_done $end
$var reg 9 #% o_result [8:0] $end
$var reg 4 $% wait_cnt [3:0] $end
$scope module u_adder $end
$var wire 1 %% a_is_inf $end
$var wire 1 &% a_is_larger $end
$var wire 1 '% a_is_nan $end
$var wire 1 (% a_is_zero $end
$var wire 1 )% b_is_inf $end
$var wire 1 *% b_is_nan $end
$var wire 1 +% b_is_zero $end
$var wire 9 ,% i_a [8:0] $end
$var wire 9 -% nan_val [8:0] $end
$var wire 1 .% same_sign $end
$var wire 1 /% sign_raw $end
$var wire 9 0% zero_val [8:0] $end
$var wire 1 1% underflow $end
$var wire 1 2% sign_small $end
$var wire 1 3% sign_large $end
$var wire 1 4% sign_b $end
$var wire 1 5% sign_a $end
$var wire 1 6% overflow $end
$var wire 9 7% normal_val [8:0] $end
$var wire 5 8% mant_sum [4:0] $end
$var wire 4 9% mant_small_shifted [3:0] $end
$var wire 4 :% mant_small [3:0] $end
$var wire 5 ;% mant_raw [4:0] $end
$var wire 4 <% mant_large [3:0] $end
$var wire 5 =% mant_diff [4:0] $end
$var wire 3 >% mant_b [2:0] $end
$var wire 3 ?% mant_a [2:0] $end
$var wire 9 @% inf_val [8:0] $end
$var wire 9 A% i_b [8:0] $end
$var wire 4 B% full_mant_b [3:0] $end
$var wire 4 C% full_mant_a [3:0] $end
$var wire 5 D% exp_large [4:0] $end
$var wire 5 E% exp_diff [4:0] $end
$var wire 5 F% exp_b [4:0] $end
$var wire 5 G% exp_a [4:0] $end
$var reg 6 H% exp_norm [5:0] $end
$var reg 3 I% mant_norm [2:0] $end
$var reg 9 J% o_result [8:0] $end
$upscope $end
$upscope $end
$scope module u_acc_r $end
$var wire 1 % i_clk $end
$var wire 9 K% i_data [8:0] $end
$var wire 1 ( i_rstn $end
$var wire 1 M i_wen $end
$var wire 1 F i_mode $end
$var wire 5 L% exp_raw [4:0] $end
$var wire 5 M% exp_e4m3 [4:0] $end
$var wire 8 N% e5m2 [7:0] $end
$var reg 8 O% e4m3 [7:0] $end
$var reg 8 P% o_data [7:0] $end
$upscope $end
$scope module u_ctrl $end
$var wire 1 P i_acc_done $end
$var wire 1 % i_clk $end
$var wire 1 ( i_rstn $end
$var wire 1 8 i_w_all_valid $end
$var wire 1 < i_mode $end
$var wire 1 A i_i_all_valid $end
$var wire 1 C i_fpu_rf_all_valid $end
$var wire 1 > i_cmd_valid_one_pulse $end
$var wire 3 Q% i_cmd [2:0] $end
$var parameter 3 R% CMD_ACC $end
$var parameter 3 S% CMD_COMPUTE $end
$var parameter 3 T% CMD_LOAD_I $end
$var parameter 3 U% CMD_LOAD_W $end
$var parameter 3 V% CMD_READ_RESULT $end
$var parameter 3 W% S_ACC_START $end
$var parameter 3 X% S_COMPUTE_DONE $end
$var parameter 3 Y% S_COMPUTE_START $end
$var parameter 3 Z% S_IDLE $end
$var parameter 3 [% S_LOAD_I $end
$var parameter 3 \% S_LOAD_W $end
$var parameter 3 ]% S_READ_RESULT $end
$var parameter 3 ^% S_TX_RESULT $end
$var reg 1 _% acc_done_flag $end
$var reg 1 `% fpu_rf_done_flag $end
$var reg 3 a% next_state [2:0] $end
$var reg 1 M o_acc_r_wen $end
$var reg 1 L o_acc_start $end
$var reg 1 K o_clear_valid $end
$var reg 1 J o_fpu_rf_send_start $end
$var reg 1 I o_fpu_rf_wen $end
$var reg 1 H o_fpu_start $end
$var reg 1 G o_i_wen $end
$var reg 1 F o_mode $end
$var reg 1 E o_tx_load $end
$var reg 1 D o_w_wen $end
$var reg 3 b% state [2:0] $end
$upscope $end
$scope module u_fpu_rf $end
$var wire 1 % i_clk $end
$var wire 1 ( i_rstn $end
$var wire 1 J i_send_start $end
$var wire 1 I i_wen $end
$var reg 1 C o_all_valid $end
$var reg 9 c% o_data [8:0] $end
$var reg 4 d% send_cnt [3:0] $end
$var reg 1 e% sending $end
$upscope $end
$scope module u_ir $end
$var wire 1 Q i_rx_done $end
$var wire 16 f% i_rx_data [15:0] $end
$var wire 4 g% exp_e4m3 [3:0] $end
$var wire 5 h% exp_conv [4:0] $end
$var reg 4 i% o_addr [3:0] $end
$var reg 3 j% o_cmd [2:0] $end
$var reg 1 > o_cmd_valid_one_pulse $end
$var reg 9 k% o_data [8:0] $end
$var reg 1 < o_mode $end
$upscope $end
$scope module u_spi $end
$var wire 1 % i_clk $end
$var wire 16 l% i_dat [15:0] $end
$var wire 1 & i_mosi $end
$var wire 1 ( i_rstn $end
$var wire 1 * i_sclk $end
$var wire 1 + i_ssn $end
$var wire 1 E i_tx_load $end
$var wire 1 : o_rx_done $end
$var wire 1 m% w_rstn $end
$var wire 1 ! o_miso $end
$var reg 16 n% RBUF [15:0] $end
$var reg 16 o% TBUF [15:0] $end
$var reg 1 p% d_SSn $end
$var reg 1 q% d_SSn_r $end
$var reg 16 r% o_dat [15:0] $end
$var reg 16 s% r_dat [15:0] $end
$upscope $end
$scope module u_w_i_rf $end
$var wire 4 t% i_addr [3:0] $end
$var wire 1 K i_clear_valid $end
$var wire 1 % i_clk $end
$var wire 9 u% i_data [8:0] $end
$var wire 1 G i_i_wen $end
$var wire 1 ( i_rstn $end
$var wire 1 D i_w_wen $end
$var wire 1 8 o_w_all_valid $end
$var wire 1 A o_i_all_valid $end
$var reg 9 v% i_all_set [8:0] $end
$var reg 9 w% w_all_set [8:0] $end
$upscope $end
$upscope $end
$scope task spi_cmd $end
$var reg 4 x% addr [3:0] $end
$var reg 3 y% cmd [2:0] $end
$var reg 8 z% data [7:0] $end
$var reg 1 {% mode $end
$upscope $end
$scope task spi_transfer $end
$var reg 16 |% rx_data [15:0] $end
$var reg 16 }% tx_data [15:0] $end
$var integer 32 ~% i [31:0] $end
$upscope $end
$upscope $end
$enddefinitions $end
$comment Show the parameter values. $end
$dumpall
b111 ^%
b110 ]%
b1 \%
b10 [%
b0 Z%
b11 Y%
b100 X%
b101 W%
b100 V%
b0 U%
b1 T%
b10 S%
b11 R%
b1000 X$
b111 4$
b110 n#
b101 J#
b100 &#
b11 `"
b10 <"
b1 v
b0 R
b110010 #
b1010 "
$end
#0
$dumpvars
bx ~%
bx }%
bx |%
x{%
bx z%
bx y%
bx x%
b0 w%
b0 v%
b1000000 u%
b0 t%
b0 s%
b0 r%
xq%
1p%
bx0 o%
b0 n%
1m%
b0 l%
b1000000 k%
b0 j%
b0 i%
b1000 h%
b0 g%
b0 f%
0e%
b0 d%
bx c%
b0 b%
b0 a%
0`%
0_%
b0 Q%
b0 P%
b1111111 O%
b0 N%
b11000 M%
b0 L%
b0 K%
bx J%
bx I%
bx H%
b0 G%
bx F%
bx E%
bx D%
b1000 C%
b1xxx B%
bx A%
bx11111000 @%
b0 ?%
bx >%
bx =%
b1xxx <%
bx ;%
b1xxx :%
bx 9%
bx 8%
bx 7%
x6%
05%
x4%
x3%
x2%
x1%
bx00000000 0%
x/%
x.%
b11111001 -%
b0 ,%
x+%
x*%
x)%
1(%
0'%
x&%
0%%
b0 $%
b0 #%
0"%
b0 !%
b0 ~$
bx }$
bx |$
b0 {$
bx z$
bx y$
bx x$
bx w$
bx v$
xu$
bx11111000 t$
bx s$
bx r$
bx q$
bx p$
bx o$
bx n$
bx m$
bx11111001 l$
bx k$
xj$
xi$
xh$
xg$
xf$
xe$
xd$
bx00000000 c$
xb$
xa$
x`$
x_$
x^$
x]$
x\$
x[$
bx Z$
bx Y$
b0 W$
bx V$
bx U$
bx T$
bx S$
bx R$
xQ$
bx11111000 P$
bx O$
bx N$
bx M$
bx L$
bx K$
bx J$
bx I$
bx11111001 H$
bx G$
xF$
xE$
xD$
xC$
xB$
xA$
x@$
bx00000000 ?$
x>$
x=$
x<$
x;$
x:$
x9$
x8$
x7$
bx 6$
bx 5$
b0 3$
bx 2$
bx 1$
bx 0$
bx /$
bx .$
x-$
bx11111000 ,$
bx +$
bx *$
bx )$
bx ($
bx '$
bx &$
bx %$
bx11111001 $$
bx #$
x"$
x!$
x~#
x}#
x|#
x{#
xz#
bx00000000 y#
xx#
xw#
xv#
xu#
xt#
xs#
xr#
xq#
bx p#
bx o#
b0 m#
bx l#
bx k#
bx j#
bx i#
bx h#
xg#
bx11111000 f#
bx e#
bx d#
bx c#
bx b#
bx a#
bx `#
bx _#
bx11111001 ^#
bx ]#
x\#
x[#
xZ#
xY#
xX#
xW#
xV#
bx00000000 U#
xT#
xS#
xR#
xQ#
xP#
xO#
xN#
xM#
bx L#
bx K#
b0 I#
bx H#
bx G#
bx F#
bx E#
bx D#
xC#
bx11111000 B#
bx A#
bx @#
bx ?#
bx >#
bx =#
bx <#
bx ;#
bx11111001 :#
bx 9#
x8#
x7#
x6#
x5#
x4#
x3#
x2#
bx00000000 1#
x0#
x/#
x.#
x-#
x,#
x+#
x*#
x)#
bx (#
bx '#
b0 %#
bx $#
bx ##
bx "#
bx !#
bx ~"
x}"
bx11111000 |"
bx {"
bx z"
bx y"
bx x"
bx w"
bx v"
bx u"
bx11111001 t"
bx s"
xr"
xq"
xp"
xo"
xn"
xm"
xl"
bx00000000 k"
xj"
xi"
xh"
xg"
xf"
xe"
xd"
xc"
bx b"
bx a"
b0 _"
bx ^"
bx ]"
bx \"
bx ["
bx Z"
xY"
bx11111000 X"
bx W"
bx V"
bx U"
bx T"
bx S"
bx R"
bx Q"
bx11111001 P"
bx O"
xN"
xM"
xL"
xK"
xJ"
xI"
xH"
bx00000000 G"
xF"
xE"
xD"
xC"
xB"
xA"
x@"
x?"
bx >"
bx ="
b0 ;"
bx :"
bx 9"
bx 8"
bx 7"
bx 6"
x5"
bx11111000 4"
bx 3"
bx 2"
bx 1"
bx 0"
bx /"
bx ."
bx -"
bx11111001 ,"
bx +"
x*"
x)"
x("
x'"
x&"
x%"
x$"
bx00000000 #"
x""
x!"
x~
x}
x|
x{
xz
xy
bx x
bx w
b0 u
bx t
bx s
bx r
bx q
bx p
xo
bx11111000 n
bx m
bx l
bx k
bx j
bx i
bx h
bx g
bx11111001 f
bx e
xd
xc
xb
xa
x`
x_
x^
bx00000000 ]
x\
x[
xZ
xY
xX
xW
xV
xU
bx T
bx S
0Q
0P
b0 O
b0 N
0M
0L
0K
0J
0I
0H
0G
0F
0E
0D
0C
bx B
0A
b0 @
b0 ?
0>
b1000000 =
0<
b0 ;
x:
b0 9
08
r0 7
bx 6
bx 5
r0 4
bx 3
bx 2
r0 1
r0 0
r0 /
bx .
r0 -
r0 ,
1+
0*
bx )
0(
bx '
0&
0%
0$
x!
$end
#5000
b10000 ;%
b0 I%
06%
01%
b1 H%
b10000 8%
b0 =%
b1000 9%
1.%
0:
b1000 <%
b1000 :%
0*%
0)%
1+%
1&%
b0 D%
b0 E%
b11111000 @%
b0 0%
b1000 7%
0/%
03%
02%
b1000 B%
b0 >%
b0 F%
04%
b0 }$
b0 J%
1q%
b0 B
b0 |$
b0 A%
b0 c%
1%
#10000
0%
#15000
1%
#20000
0%
#25000
1%
#30000
0%
#35000
1%
#40000
0%
#45000
1%
#50000
0%
#55000
1%
#60000
0%
#65000
1%
#70000
0%
#75000
1%
#80000
0%
#85000
1%
#90000
0%
#95000
1%
#100000
0%
1(
#105000
1%
#110000
0%
#115000
1%
#120000
0%
#125000
1%
#130000
0%
#135000
1%
#140000
0%
#145000
1%
#150000
0%
#155000
1%
#160000
0%
#165000
1%
#170000
0%
#175000
1%
#180000
0%
#185000
1%
#190000
0%
#195000
1%
#200000
0!
b0 o%
0m%
0%
0+
b11100000000 }%
0{%
b0 x%
b111000 z%
b0 y%
b0 .
#205000
1m%
0p%
0q%
1%
#210000
0%
#215000
1%
#220000
0%
#225000
1%
#230000
0%
#235000
1%
#240000
0%
#245000
1%
#250000
0%
b1111 ~%
#255000
1%
#260000
0%
#265000
1%
#270000
0%
#275000
1%
#280000
0%
#285000
1%
#290000
0%
#295000
1%
#300000
0%
1*
#301000
b0xxxxxxxxxxxxxxx |%
#305000
1%
#310000
0%
#315000
1%
#320000
0%
#325000
1%
#330000
0%
#335000
1%
#340000
0%
#345000
1%
#350000
0%
b1110 ~%
0*
#355000
1%
#360000
0%
#365000
1%
#370000
0%
#375000
1%
#380000
0%
#385000
1%
#390000
0%
#395000
1%
#400000
0%
1*
#401000
b0xxxxxxxxxxxxxx |%
#405000
1%
#410000
0%
#415000
1%
#420000
0%
#425000
1%
#430000
0%
#435000
1%
#440000
0%
#445000
1%
#450000
0%
b1101 ~%
0*
#455000
1%
#460000
0%
#465000
1%
#470000
0%
#475000
1%
#480000
0%
#485000
1%
#490000
0%
#495000
1%
#500000
0%
1*
#501000
b0xxxxxxxxxxxxx |%
#505000
1%
#510000
0%
#515000
1%
#520000
0%
#525000
1%
#530000
0%
#535000
1%
#540000
0%
#545000
1%
#550000
0%
b1100 ~%
0*
#555000
1%
#560000
0%
#565000
1%
#570000
0%
#575000
1%
#580000
0%
#585000
1%
#590000
0%
#595000
1%
#600000
0%
1*
#601000
b0xxxxxxxxxxxx |%
#605000
1%
#610000
0%
#615000
1%
#620000
0%
#625000
1%
#630000
0%
#635000
1%
#640000
0%
#645000
1%
#650000
0%
b1011 ~%
0*
#655000
1%
#660000
0%
#665000
1%
#670000
0%
#675000
1%
#680000
0%
#685000
1%
#690000
0%
#695000
1%
#700000
0%
1*
#701000
b0xxxxxxxxxxx |%
#705000
1%
#710000
0%
#715000
1%
#720000
0%
#725000
1%
#730000
0%
#735000
1%
#740000
0%
#745000
1%
#750000
0%
1&
b1010 ~%
0*
#755000
1%
#760000
0%
#765000
1%
#770000
0%
#775000
1%
#780000
0%
#785000
1%
#790000
0%
#795000
1%
#800000
b1 n%
0%
1*
#801000
b0xxxxxxxxxx |%
#805000
1%
#810000
0%
#815000
1%
#820000
0%
#825000
1%
#830000
0%
#835000
1%
