simulation/tb_temp_top.vcd
$date
	Thu May 21 17:52:10 2026
$end
$version
	Icarus Verilog
$end
$timescale
	1ps
$end
$scope module tb_temp_top $end
$var wire 1 ! all_valid $end
$var wire 9 " acc_result [8:0] $end
$var wire 1 # acc_r_valid $end
$var wire 8 $ acc_r_data [7:0] $end
$var wire 1 % acc_done $end
$var reg 1 & acc_r_wen $end
$var reg 1 ' acc_start $end
$var reg 1 ( clk $end
$var reg 1 ) mode $end
$var reg 1 * rstn $end
$var reg 1 + send_start $end
$var reg 1 , wen $end
$var integer 32 - fail_cnt [31:0] $end
$var integer 32 . pass_cnt [31:0] $end
$scope module u_dut $end
$var wire 1 & i_acc_r_wen $end
$var wire 1 ' i_acc_start $end
$var wire 1 ( i_clk $end
$var wire 1 ) i_mode $end
$var wire 1 * i_rstn $end
$var wire 1 + i_send_start $end
$var wire 1 , i_wen $end
$var wire 1 ! o_all_valid $end
$var wire 9 / o_acc_result [8:0] $end
$var wire 1 # o_acc_r_valid $end
$var wire 8 0 o_acc_r_data [7:0] $end
$var wire 1 % o_acc_done $end
$var wire 9 1 fpu_rf_to_acc [8:0] $end
$scope module u_acc $end
$var wire 1 ( i_clk $end
$var wire 1 * i_rstn $end
$var wire 1 ' i_start $end
$var wire 9 2 i_data [8:0] $end
$var wire 9 3 adder_result [8:0] $end
$var reg 4 4 acc_cnt [3:0] $end
$var reg 9 5 acc_reg [8:0] $end
$var reg 1 6 active $end
$var reg 1 % o_done $end
$var reg 9 7 o_result [8:0] $end
$var reg 4 8 wait_cnt [3:0] $end
$scope module u_adder $end
$var wire 1 9 a_is_inf $end
$var wire 1 : a_is_larger $end
$var wire 1 ; a_is_nan $end
$var wire 1 < a_is_zero $end
$var wire 1 = b_is_inf $end
$var wire 1 > b_is_nan $end
$var wire 1 ? b_is_zero $end
$var wire 9 @ i_a [8:0] $end
$var wire 9 A nan_val [8:0] $end
$var wire 1 B same_sign $end
$var wire 1 C sign_raw $end
$var wire 9 D zero_val [8:0] $end
$var wire 1 E underflow $end
$var wire 1 F sign_small $end
$var wire 1 G sign_large $end
$var wire 1 H sign_b $end
$var wire 1 I sign_a $end
$var wire 1 J overflow $end
$var wire 9 K normal_val [8:0] $end
$var wire 5 L mant_sum [4:0] $end
$var wire 4 M mant_small_shifted [3:0] $end
$var wire 4 N mant_small [3:0] $end
$var wire 5 O mant_raw [4:0] $end
$var wire 4 P mant_large [3:0] $end
$var wire 5 Q mant_diff [4:0] $end
$var wire 3 R mant_b [2:0] $end
$var wire 3 S mant_a [2:0] $end
$var wire 9 T inf_val [8:0] $end
$var wire 9 U i_b [8:0] $end
$var wire 4 V full_mant_b [3:0] $end
$var wire 4 W full_mant_a [3:0] $end
$var wire 5 X exp_large [4:0] $end
$var wire 5 Y exp_diff [4:0] $end
$var wire 5 Z exp_b [4:0] $end
$var wire 5 [ exp_a [4:0] $end
$var reg 6 \ exp_norm [5:0] $end
$var reg 3 ] mant_norm [2:0] $end
$var reg 9 ^ o_result [8:0] $end
$upscope $end
$upscope $end
$scope module u_acc_r $end
$var wire 1 ( i_clk $end
$var wire 9 _ i_data [8:0] $end
$var wire 1 ) i_mode $end
$var wire 1 * i_rstn $end
$var wire 1 & i_wen $end
$var wire 5 ` exp_raw [4:0] $end
$var wire 5 a exp_e4m3 [4:0] $end
$var wire 8 b e5m2 [7:0] $end
$var reg 8 c e4m3 [7:0] $end
$var reg 8 d o_data [7:0] $end
$var reg 1 # o_valid $end
$upscope $end
$scope module u_fpu_rf $end
$var wire 1 ( i_clk $end
$var wire 1 * i_rstn $end
$var wire 1 + i_send_start $end
$var wire 1 , i_wen $end
$var reg 1 ! o_all_valid $end
$var reg 9 e o_data [8:0] $end
$var reg 4 f send_cnt [3:0] $end
$var reg 1 g sending $end
$upscope $end
$upscope $end
$scope task run_test $end
$var reg 9 h d0 [8:0] $end
$var reg 9 i d1 [8:0] $end
$var reg 9 j d2 [8:0] $end
$var reg 9 k d3 [8:0] $end
$var reg 9 l d4 [8:0] $end
$var reg 9 m d5 [8:0] $end
$var reg 9 n d6 [8:0] $end
$var reg 9 o d7 [8:0] $end
$var reg 9 p d8 [8:0] $end
$var reg 9 q expected_acc [8:0] $end
$var reg 8 r expected_r [7:0] $end
$var reg 1 s test_mode $end
$var reg 256 t test_name [255:0] $end
$upscope $end
$upscope $end
$enddefinitions $end
$comment Show the parameter values. $end
$dumpall
$end
#0
$dumpvars
bx t
xs
bx r
bx q
bx p
bx o
bx n
bx m
bx l
bx k
bx j
bx i
bx h
0g
b0 f
b0 e
b0 d
b1111111 c
b0 b
b11000 a
b0 `
b0 _
b0 ^
b0 ]
b1 \
b0 [
b0 Z
b0 Y
b0 X
b1000 W
b1000 V
b0 U
b11111000 T
b0 S
b0 R
b0 Q
b1000 P
b10000 O
b1000 N
b1000 M
b10000 L
b1000 K
0J
0I
0H
0G
0F
0E
b0 D
0C
1B
b11111001 A
b0 @
1?
0>
0=
1<
0;
1:
09
b0 8
b0 7
06
b0 5
b0 4
b0 3
b0 2
b0 1
b0 0
b0 /
b0 .
b0 -
0,
0+
0*
0)
0(
0'
0&
0%
b0 $
0#
b0 "
0!
$end
#5000
1(
#10000
0(
#15000
1(
#20000
0(
1*
#25000
b11000100101110001100000111100000111001001111010011100100101110001100000010000001000101001101000100110100110011 t
b1010001 r
0s
b10010001 q
b1111000 p
b1111000 o
b1111000 n
b1111000 m
b1111000 l
b1111000 k
b1111000 j
b1111000 i
b1111000 h
1(
#30000
0(
#35000
1!
1,
1(
#40000
0(
#45000
0!
0,
1(
#50000
0(
#55000
b1111000 K
b1111 \
b1111 X
b1000 O
b1111000 3
b1111000 ^
0:
b1000 L
b1000 Q
b0 M
0?
b1111 Y
b1111 Z
b1111000 1
b1111000 2
b1111000 U
b1111000 e
1g
16
b1 8
1'
1+
1(
#60000
0(
#65000
b10000000 3
b10000000 ^
b10000000 K
b10000 \
b10000 O
1:
b10000 L
b0 Q
b1000 M
0<
b0 Y
b1111 [
b1 4
b1111000 5
b1111000 @
b1 f
0'
0+
1(
#70000
0(
#75000
b10000100 3
b10000100 ^
b100 ]
b10000100 K
b1100 O
b10000 \
b1100 L
b100 Q
b100 M
b10000 X
b1 Y
b10000 [
b10 f
b10 4
b10000000 5
b10000000 @
1(
#80000
0(
#85000
b10001000 3
b10001000 ^
b10001000 K
b0 ]
b10001 \
b10000 O
b10000 L
b1000 Q
b1100 P
b1100 W
b100 S
b11 4
b10000100 5
b10000100 @
b11 f
1(
#90000
0(
#95000
b10001010 3
b10001010 ^
b10001010 K
b10 ]
b10 M
b1010 O
b10001 X
b10 Y
b1010 L
b110 Q
b1000 P
b10001 [
b1000 W
b0 S
b100 f
b100 4
b10001000 5
b10001000 @
1(
#100000
0(
#105000
b10001100 3
b10001100 ^
b10001100 K
b100 ]
b1100 O
b1100 L
b1000 Q
b1010 P
b1010 W
b10 S
b101 4
b10001010 5
b10001010 @
b101 f
1(
#110000
0(
#115000
b10001110 3
b10001110 ^
b10001110 K
b110 ]
b1110 O
b1110 L
b1010 Q
b1100 P
b1100 W
b100 S
b110 f
b110 4
b10001100 5
b10001100 @
1(
#120000
0(
#125000
b10010000 3
b10010000 ^
b10010000 K
b0 ]
b10010 \
b10000 O
b10000 L
b1100 Q
b1110 P
b1110 W
b110 S
b111 4
b10001110 5
b10001110 @
b111 f
1(
#130000
0(
#135000
b10010001 3
b10010001 ^
b10010001 K
b1 ]
b1 M
b1001 O
b10010 X
b11 Y
b1001 L
b111 Q
b1000 P
b10010 [
b1000 W
b0 S
b1000 f
b1000 4
b10010000 5
b10010000 @
1(
#140000
0(
#145000
b10010001 K
b1 ]
b0 M
b1001 O
1?
b10010 Y
b1001 L
b1001 Q
b1001 P
b0 Z
b1010001 c
b1010 a
b10010 `
b1001000 b
b1001 W
b1 S
b0 1
b0 2
b0 U
b0 e
06
1%
b10010001 "
b10010001 /
b10010001 7
b10010001 _
b1001 4
b10010001 5
b10010001 @
0g
1(
#150000
0(
#155000
0%
1#
b1010001 $
b1010001 0
b1010001 d
1&
b1 .
1(
#160000
0(
#165000
1(
#166000
b10 .
0&
#170000
0(
#175000
0#
b0 $
b0 0
b0 d
1(
#180000
0(
#185000
1)
b11000100101110001100000111100000111001001111010011100100101110001100000010000001000101001101010100110100110010 t
b1001000 r
1s
1(
#190000
0(
#195000
1!
1,
1(
#200000
0(
#205000
0!
0,
1(
#210000
0(
#215000
0:
0?
b1111000 K
b0 ]
0E
b1111 \
b0 M
b1000 O
b1111 Z
b1111 X
b1111 Y
1<
b1000 L
b1000 Q
b1000 P
b1111000 1
b1111000 2
b1111000 U
b1111000 e
b1111000 3
b1111000 ^
b0 [
b1000 W
b0 S
1g
b0 f
b0 5
b0 @
16
b0 4
1'
1+
1(
#220000
0(
#225000
b10000000 3
b10000000 ^
b10000000 K
b10000 \
b10000 O
1:
b10000 L
b0 Q
b1000 M
0<
b0 Y
b1111 [
b1 4
b1111000 5
b1111000 @
b1 f
0'
0+
1(
#230000
0(
#235000
b10000100 3
b10000100 ^
b100 ]
b10000100 K
b1100 O
b10000 \
b1100 L
b100 Q
b100 M
b10000 X
b1 Y
b10000 [
b10 f
b10 4
b10000000 5
b10000000 @
1(
#240000
0(
#245000
b10001000 3
b10001000 ^
b10001000 K
b0 ]
b10001 \
b10000 O
b10000 L
b1000 Q
b1100 P
b1100 W
b100 S
b11 4
b10000100 5
b10000100 @
b11 f
1(
#250000
0(
#255000
b10001010 3
b10001010 ^
b10001010 K
b10 ]
b10 M
b1010 O
b10001 X
b10 Y
b1010 L
b110 Q
b1000 P
b10001 [
b1000 W
b0 S
b100 f
b100 4
b10001000 5
b10001000 @
1(
#260000
0(
#265000
b10001100 3
b10001100 ^
b10001100 K
b100 ]
b1100 O
b1100 L
b1000 Q
b1010 P
b1010 W
b10 S
b101 4
b10001010 5
b10001010 @
b101 f
1(
#270000
0(
#275000
b10001110 3
b10001110 ^
b10001110 K
b110 ]
b1110 O
b1110 L
b1010 Q
b1100 P
b1100 W
b100 S
b110 f
b110 4
b10001100 5
b10001100 @
1(
#280000
0(
#285000
b10010000 3
b10010000 ^
b10010000 K
b0 ]
b10010 \
b10000 O
b10000 L
b1100 Q
b1110 P
b1110 W
b110 S
b111 4
b10001110 5
b10001110 @
b111 f
1(
#290000
0(
#295000
b10010001 3
b10010001 ^
b10010001 K
b1 ]
b1 M
b1001 O
b10010 X
b11 Y
b1001 L
b111 Q
b1000 P
b10010 [
b1000 W
b0 S
b1000 f
b1000 4
b10010000 5
b10010000 @
1(
#300000
0(
#305000
b10010001 K
b1 ]
b0 M
b1001 O
1?
b10010 Y
b1001 L
b1001 Q
b1001 P
b0 Z
b1001 W
b1 S
b0 1
b0 2
b0 U
b0 e
06
1%
b1001 4
b10010001 5
b10010001 @
0g
1(
#310000
0(
#315000
0%
1#
b1001000 $
b1001000 0
b1001000 d
1&
b11 .
1(
#320000
0(
#325000
1(
#326000
b100 .
0&
#330000
0(
#335000
0#
b0 $
b0 0
b0 d
1(
#340000
0(
#345000
0)
b1100100010111000110000011110000011100100111101001100010011100000101110001100000010000001000101001101000100110100110011 t
b1011001 r
0s
b10011001 q
b10000000 p
b10000000 o
b10000000 n
b10000000 m
b10000000 l
b10000000 k
b10000000 j
b10000000 i
b10000000 h
1(
#350000
0(
#355000
1!
1,
1(
#360000
0(
#365000
0!
0,
1(
#370000
0(
#375000
0:
0?
b10000000 K
b0 ]
0E
b10000 \
b0 M
b1000 O
b10000 Z
b10000 X
b10000 Y
1<
b1000 L
b1000 Q
b1000 P
b10000000 1
b10000000 2
b10000000 U
b10000000 e
b10000000 3
b10000000 ^
b0 [
b1000 W
b0 S
1g
b0 f
b0 5
b0 @
16
b0 4
1'
1+
1(
#380000
0(
#385000
b10001000 3
b10001000 ^
b10001000 K
b10001 \
b10000 O
1:
b10000 L
b0 Q
b1000 M
0<
b0 Y
b10000 [
b1 4
b10000000 5
b10000000 @
b1 f
0'
0+
1(
#390000
0(
#395000
b10001100 3
b10001100 ^
b100 ]
b10001100 K
b1100 O
b10001 \
b1100 L
b100 Q
b100 M
b10001 X
b1 Y
b10001 [
b10 f
b10 4
b10001000 5
b10001000 @
1(
#400000
0(
#405000
b10010000 3
b10010000 ^
b10010000 K
b0 ]
b10010 \
b10000 O
b10000 L
b1000 Q
b1100 P
b1100 W
b100 S
b11 4
b10001100 5
b10001100 @
b11 f
1(
#410000
0(
#415000
b10010010 3
b10010010 ^
b10010010 K
b10 ]
b10 M
b1010 O
b10010 X
b10 Y
b1010 L
b110 Q
b1000 P
b10010 [
b1000 W
b0 S
b100 f
b100 4
b10010000 5
b10010000 @
1(
#420000
0(
#425000
b10010100 3
b10010100 ^
b10010100 K
b100 ]
b1100 O
b1100 L
b1000 Q
b1010 P
b1010 W
b10 S
b101 4
b10010010 5
b10010010 @
b101 f
1(
#430000
0(
#435000
b10010110 3
b10010110 ^
b10010110 K
b110 ]
b1110 O
b1110 L
b1010 Q
b1100 P
b1100 W
b100 S
b110 f
b110 4
b10010100 5
b10010100 @
1(
#440000
0(
#445000
b10011000 3
b10011000 ^
b10011000 K
b0 ]
b10011 \
b10000 O
b10000 L
b1100 Q
b1110 P
b1110 W
b110 S
b111 4
b10010110 5
b10010110 @
b111 f
1(
#450000
0(
#455000
b10011001 3
b10011001 ^
b10011001 K
b1 ]
b1 M
b1001 O
b10011 X
b11 Y
b1001 L
b111 Q
b1000 P
b10011 [
b1000 W
b0 S
b1000 f
b1000 4
b10011000 5
b10011000 @
1(
#460000
0(
#465000
b10011001 K
b1 ]
b0 M
b1001 O
1?
b10011 Y
b1001 L
b1001 Q
b1001 P
b0 Z
b1011001 c
b1011 a
b10011 `
b1001100 b
b1001 W
b1 S
b0 1
b0 2
b0 U
b0 e
06
1%
b10011001 "
b10011001 /
b10011001 7
b10011001 _
b1001 4
b10011001 5
b10011001 @
0g
1(
#470000
0(
#475000
0%
1#
b1011001 $
b1011001 0
b1011001 d
1&
b101 .
1(
#480000
0(
#485000
1(
#486000
b110 .
0&
#490000
0(
#495000
0#
b0 $
b0 0
b0 d
1(
#500000
0(
#505000
1)
b1100100010111000110000011110000011100100111101001100010011100000101110001100000010000001000101001101010100110100110010 t
b1001100 r
1s
1(
#510000
0(
#515000
1!
1,
1(
#520000
0(
#525000
0!
0,
1(
#530000
0(
#535000
0:
0?
b10000000 K
b0 ]
0E
b10000 \
b0 M
b1000 O
b10000 Z
b10000 X
b10000 Y
1<
b1000 L
b1000 Q
b1000 P
b10000000 1
b10000000 2
b10000000 U
b10000000 e
b10000000 3
b10000000 ^
b0 [
b1000 W
b0 S
1g
b0 f
b0 5
b0 @
16
b0 4
1'
1+
1(
#540000
0(
#545000
b10001000 3
b10001000 ^
b10001000 K
b10001 \
b10000 O
1:
b10000 L
b0 Q
b1000 M
0<
b0 Y
b10000 [
b1 4
b10000000 5
b10000000 @
b1 f
0'
0+
1(
#550000
0(
#555000
b10001100 3
b10001100 ^
b100 ]
b10001100 K
b1100 O
b10001 \
b1100 L
b100 Q
b100 M
b10001 X
b1 Y
b10001 [
b10 f
b10 4
b10001000 5
b10001000 @
1(
#560000
0(
#565000
b10010000 3
b10010000 ^
b10010000 K
b0 ]
b10010 \
b10000 O
b10000 L
b1000 Q
b1100 P
b1100 W
b100 S
b11 4
b10001100 5
b10001100 @
b11 f
1(
#570000
0(
#575000
b10010010 3
b10010010 ^
b10010010 K
b10 ]
b10 M
b1010 O
b10010 X
b10 Y
b1010 L
b110 Q
b1000 P
b10010 [
b1000 W
b0 S
b100 f
b100 4
b10010000 5
b10010000 @
1(
#580000
0(
#585000
b10010100 3
b10010100 ^
b10010100 K
b100 ]
b1100 O
b1100 L
b1000 Q
b1010 P
b1010 W
b10 S
b101 4
b10010010 5
b10010010 @
b101 f
1(
#590000
0(
#595000
b10010110 3
b10010110 ^
b10010110 K
b110 ]
b1110 O
b1110 L
b1010 Q
b1100 P
b1100 W
b100 S
b110 f
b110 4
b10010100 5
b10010100 @
1(
#600000
0(
#605000
b10011000 3
b10011000 ^
b10011000 K
b0 ]
b10011 \
b10000 O
b10000 L
b1100 Q
b1110 P
b1110 W
b110 S
b111 4
b10010110 5
b10010110 @
b111 f
1(
#610000
0(
#615000
b10011001 3
b10011001 ^
b10011001 K
b1 ]
b1 M
b1001 O
b10011 X
b11 Y
b1001 L
b111 Q
b1000 P
b10011 [
b1000 W
b0 S
b1000 f
b1000 4
b10011000 5
b10011000 @
1(
#620000
0(
#625000
b10011001 K
b1 ]
b0 M
b1001 O
1?
b10011 Y
b1001 L
b1001 Q
b1001 P
b0 Z
b1001 W
b1 S
b0 1
b0 2
b0 U
b0 e
06
1%
b1001 4
b10011001 5
b10011001 @
0g
1(
#630000
0(
#635000
0%
1#
b1001100 $
b1001100 0
b1001100 d
1&
b111 .
1(
#640000
0(
#645000
1(
#646000
b1000 .
0&
#650000
0(
#655000
0#
b0 $
b0 0
b0 d
1(
#660000
0(
#665000
0)
b1100110010111000110000001010110011000001111000001110000010000001000101001101000100110100110011 t
b1000100 r
0s
b10000100 q
b0 p
b0 o
b0 n
b0 m
b0 l
b0 k
b0 j
b0 i
b10000100 h
1(
#670000
0(
#675000
1!
1,
1(
#680000
0(
#685000
0!
0,
1(
#690000
0(
#695000
0:
b1000 N
0?
b10000100 K
b100 ]
0E
b10000 \
b0 M
b1100 O
b1100 V
b100 R
b10000 Z
b10000 X
b10000 Y
1<
b1100 L
b1100 Q
b1100 P
b10000100 1
b10000100 2
b10000100 U
b10000100 e
b10000100 3
b10000100 ^
b0 [
b1000 W
b0 S
1g
b0 f
b0 5
b0 @
16
b0 4
1'
1+
1(
#700000
0(
#705000
b10000100 K
0E
b10000 \
1?
1:
b10000 X
0<
b1000 N
b1000 V
b0 R
b0 Z
b10000100 3
b10000100 ^
b10000 [
b1100 W
b100 S
b0 1
b0 2
b0 U
b0 e
b1 4
b10000100 5
b10000100 @
b1 f
0'
0+
1(
#710000
0(
#715000
b10 f
b10 4
1(
#720000
0(
#725000
b11 4
b11 f
1(
#730000
0(
#735000
b100 f
b100 4
1(
#740000
0(
#745000
b101 4
b101 f
1(
#750000
0(
#755000
b110 f
b110 4
1(
#760000
0(
#765000
b111 4
b111 f
1(
#770000
0(
#775000
b1000 f
b1000 4
1(
#780000
0(
#785000
b1000100 c
b1000 a
b10000 `
b1000010 b
06
1%
b10000100 "
b10000100 /
b10000100 7
b10000100 _
b1001 4
0g
1(
#790000
0(
#795000
0%
1#
b1000100 $
b1000100 0
b1000100 d
1&
b1001 .
1(
#800000
0(
#805000
1(
#806000
b1010 .
0&
#810000
0(
#815000
0#
b0 $
b0 0
b0 d
1(
